C:\Users\Usuario\Documents\workspace-spring-tool-suite-4-4.11.0.RELEASE\micro-api-rest\Proyect1\src\main\java\com\proyect1\demo\service\impl\RolesServiceImpl.java
C:\Users\Usuario\Documents\workspace-spring-tool-suite-4-4.11.0.RELEASE\micro-api-rest\Proyect1\src\main\java\com\proyect1\demo\service\MapperEntityToDTO.java
C:\Users\Usuario\Documents\workspace-spring-tool-suite-4-4.11.0.RELEASE\micro-api-rest\Proyect1\src\main\java\com\proyect1\demo\entity\Client.java
C:\Users\Usuario\Documents\workspace-spring-tool-suite-4-4.11.0.RELEASE\micro-api-rest\Proyect1\src\main\java\com\proyect1\demo\request\NewGeneralInvoiceRequest.java
C:\Users\Usuario\Documents\workspace-spring-tool-suite-4-4.11.0.RELEASE\micro-api-rest\Proyect1\src\main\java\com\proyect1\demo\service\AdminService.java
C:\Users\Usuario\Documents\workspace-spring-tool-suite-4-4.11.0.RELEASE\micro-api-rest\Proyect1\src\main\java\com\proyect1\demo\service\impl\ClientServiceImpl.java
C:\Users\Usuario\Documents\workspace-spring-tool-suite-4-4.11.0.RELEASE\micro-api-rest\Proyect1\src\main\java\com\proyect1\demo\entity\Roles.java
C:\Users\Usuario\Documents\workspace-spring-tool-suite-4-4.11.0.RELEASE\micro-api-rest\Proyect1\src\main\java\com\proyect1\demo\exception\LockedException.java
C:\Users\Usuario\Documents\workspace-spring-tool-suite-4-4.11.0.RELEASE\micro-api-rest\Proyect1\src\main\java\com\proyect1\demo\Proyect1Application.java
C:\Users\Usuario\Documents\workspace-spring-tool-suite-4-4.11.0.RELEASE\micro-api-rest\Proyect1\src\main\java\com\proyect1\demo\controller\ClinetController.java
C:\Users\Usuario\Documents\workspace-spring-tool-suite-4-4.11.0.RELEASE\micro-api-rest\Proyect1\src\main\java\com\proyect1\demo\service\ClientService.java
C:\Users\Usuario\Documents\workspace-spring-tool-suite-4-4.11.0.RELEASE\micro-api-rest\Proyect1\src\main\java\com\proyect1\demo\exception\GlobalExceptionHandler.java
C:\Users\Usuario\Documents\workspace-spring-tool-suite-4-4.11.0.RELEASE\micro-api-rest\Proyect1\src\main\java\com\proyect1\demo\security\LoginService.java
C:\Users\Usuario\Documents\workspace-spring-tool-suite-4-4.11.0.RELEASE\micro-api-rest\Proyect1\src\main\java\com\proyect1\demo\request\ModifyManagerRoleRequest.java
C:\Users\Usuario\Documents\workspace-spring-tool-suite-4-4.11.0.RELEASE\micro-api-rest\Proyect1\src\main\java\com\proyect1\demo\service\RolesService.java
C:\Users\Usuario\Documents\workspace-spring-tool-suite-4-4.11.0.RELEASE\micro-api-rest\Proyect1\src\main\java\com\proyect1\demo\exception\ResourceNotFoundException.java
C:\Users\Usuario\Documents\workspace-spring-tool-suite-4-4.11.0.RELEASE\micro-api-rest\Proyect1\src\main\java\com\proyect1\demo\enums\OrderStatus.java
C:\Users\Usuario\Documents\workspace-spring-tool-suite-4-4.11.0.RELEASE\micro-api-rest\Proyect1\src\main\java\com\proyect1\demo\request\UpdateCliente.java
C:\Users\Usuario\Documents\workspace-spring-tool-suite-4-4.11.0.RELEASE\micro-api-rest\Proyect1\src\main\java\com\proyect1\demo\security\JWTAuthorizationFilter.java
C:\Users\Usuario\Documents\workspace-spring-tool-suite-4-4.11.0.RELEASE\micro-api-rest\Proyect1\src\main\java\com\proyect1\demo\request\UpdateAddress.java
C:\Users\Usuario\Documents\workspace-spring-tool-suite-4-4.11.0.RELEASE\micro-api-rest\Proyect1\src\main\java\com\proyect1\demo\entity\Product.java
C:\Users\Usuario\Documents\workspace-spring-tool-suite-4-4.11.0.RELEASE\micro-api-rest\Proyect1\src\main\java\com\proyect1\demo\entity\GeneralInvoice.java
C:\Users\Usuario\Documents\workspace-spring-tool-suite-4-4.11.0.RELEASE\micro-api-rest\Proyect1\src\main\java\com\proyect1\demo\dto\GeneralInvoiceDTO.java
C:\Users\Usuario\Documents\workspace-spring-tool-suite-4-4.11.0.RELEASE\micro-api-rest\Proyect1\src\main\java\com\proyect1\demo\service\impl\MapperEntityToDtoImpl.java
C:\Users\Usuario\Documents\workspace-spring-tool-suite-4-4.11.0.RELEASE\micro-api-rest\Proyect1\src\main\java\com\proyect1\demo\dto\ClientDTO.java
C:\Users\Usuario\Documents\workspace-spring-tool-suite-4-4.11.0.RELEASE\micro-api-rest\Proyect1\src\main\java\com\proyect1\demo\entity\InvoiceDetail.java
C:\Users\Usuario\Documents\workspace-spring-tool-suite-4-4.11.0.RELEASE\micro-api-rest\Proyect1\src\main\java\com\proyect1\demo\service\ManagerService.java
C:\Users\Usuario\Documents\workspace-spring-tool-suite-4-4.11.0.RELEASE\micro-api-rest\Proyect1\src\main\java\com\proyect1\demo\controller\LoginController.java
C:\Users\Usuario\Documents\workspace-spring-tool-suite-4-4.11.0.RELEASE\micro-api-rest\Proyect1\src\main\java\com\proyect1\demo\controller\AdminController.java
C:\Users\Usuario\Documents\workspace-spring-tool-suite-4-4.11.0.RELEASE\micro-api-rest\Proyect1\src\main\java\com\proyect1\demo\repository\ClientRepository.java
C:\Users\Usuario\Documents\workspace-spring-tool-suite-4-4.11.0.RELEASE\micro-api-rest\Proyect1\src\main\java\com\proyect1\demo\enums\Role.java
C:\Users\Usuario\Documents\workspace-spring-tool-suite-4-4.11.0.RELEASE\micro-api-rest\Proyect1\src\main\java\com\proyect1\demo\enums\PaymentStatus.java
C:\Users\Usuario\Documents\workspace-spring-tool-suite-4-4.11.0.RELEASE\micro-api-rest\Proyect1\src\main\java\com\proyect1\demo\exception\PreConditionFailedException.java
C:\Users\Usuario\Documents\workspace-spring-tool-suite-4-4.11.0.RELEASE\micro-api-rest\Proyect1\src\main\java\com\proyect1\demo\repository\RolesRepository.java
C:\Users\Usuario\Documents\workspace-spring-tool-suite-4-4.11.0.RELEASE\micro-api-rest\Proyect1\src\main\java\com\proyect1\demo\security\PasswordEncoderService.java
C:\Users\Usuario\Documents\workspace-spring-tool-suite-4-4.11.0.RELEASE\micro-api-rest\Proyect1\src\main\java\com\proyect1\demo\entity\Manager.java
C:\Users\Usuario\Documents\workspace-spring-tool-suite-4-4.11.0.RELEASE\micro-api-rest\Proyect1\src\main\java\com\proyect1\demo\request\NewManagerRequest.java
C:\Users\Usuario\Documents\workspace-spring-tool-suite-4-4.11.0.RELEASE\micro-api-rest\Proyect1\src\main\java\com\proyect1\demo\exception\ErrorDetails.java
C:\Users\Usuario\Documents\workspace-spring-tool-suite-4-4.11.0.RELEASE\micro-api-rest\Proyect1\src\main\java\com\proyect1\demo\dto\ManagerDTO.java
C:\Users\Usuario\Documents\workspace-spring-tool-suite-4-4.11.0.RELEASE\micro-api-rest\Proyect1\src\main\java\com\proyect1\demo\repository\ManagerRepository.java
C:\Users\Usuario\Documents\workspace-spring-tool-suite-4-4.11.0.RELEASE\micro-api-rest\Proyect1\src\main\java\com\proyect1\demo\request\NewManagerAdminRequest.java
C:\Users\Usuario\Documents\workspace-spring-tool-suite-4-4.11.0.RELEASE\micro-api-rest\Proyect1\src\main\java\com\proyect1\demo\request\NewInvoiceDetailRequest.java
C:\Users\Usuario\Documents\workspace-spring-tool-suite-4-4.11.0.RELEASE\micro-api-rest\Proyect1\src\main\java\com\proyect1\demo\repository\GeneralInvoiceRepository.java
C:\Users\Usuario\Documents\workspace-spring-tool-suite-4-4.11.0.RELEASE\micro-api-rest\Proyect1\src\main\java\com\proyect1\demo\request\LoginRequest.java
C:\Users\Usuario\Documents\workspace-spring-tool-suite-4-4.11.0.RELEASE\micro-api-rest\Proyect1\src\main\java\com\proyect1\demo\entity\Address.java
C:\Users\Usuario\Documents\workspace-spring-tool-suite-4-4.11.0.RELEASE\micro-api-rest\Proyect1\src\main\java\com\proyect1\demo\service\impl\AdminServiceImpl.java
C:\Users\Usuario\Documents\workspace-spring-tool-suite-4-4.11.0.RELEASE\micro-api-rest\Proyect1\src\main\java\com\proyect1\demo\entity\User.java
C:\Users\Usuario\Documents\workspace-spring-tool-suite-4-4.11.0.RELEASE\micro-api-rest\Proyect1\src\main\java\com\proyect1\demo\service\impl\ManagerServiceImpl.java
C:\Users\Usuario\Documents\workspace-spring-tool-suite-4-4.11.0.RELEASE\micro-api-rest\Proyect1\src\main\java\com\proyect1\demo\enums\PaymentMethod.java
C:\Users\Usuario\Documents\workspace-spring-tool-suite-4-4.11.0.RELEASE\micro-api-rest\Proyect1\src\main\java\com\proyect1\demo\repository\UserRepository.java
C:\Users\Usuario\Documents\workspace-spring-tool-suite-4-4.11.0.RELEASE\micro-api-rest\Proyect1\src\main\java\com\proyect1\demo\request\NewClientRequest.java
